{
  "songs": [
    {
      "id": 1,
      "artist": "The Yousicians",
      "title": "Lycanthropic Metamorphosis",
      "level": 13,
      "released": "2016-10-26",
      "views": "1.5M",
      "rating": 5
    },
    {
      "id": 2,
      "artist": "The Yousicians",
      "title": "A New Kennel",
      "level": 9,
      "released": "2010-02-03",
      "views": "1.5M",
      "rating": 4.8
    },
    {
      "id": 3,
      "artist": "Mr Fastfinger",
      "title": "Awaki-Waki",
      "level": 13,
      "released": "2012-05-11",
      "views": "1.5M",
      "rating": 3
    },
    {
      "id": 4,
      "artist": "The Yousicians",
      "title": "You've Got The Power",
      "level": 13,
      "released": "2014-12-20",
      "views": "1.5M",
      "rating": 4.4
    },
    {
      "id": 5,
      "artist": "The Yousicians",
      "title": "Wishing In The Night",
      "level": 9,
      "released": "2016-01-01",
      "views": "1.5M",
      "rating": 1.6
    },
    {
      "id": 6,
      "artist": "The Yousicians",
      "title": "Opa Opa Ta Bouzoukia",
      "level": 13,
      "released": "2013-04-27",
      "views": "1.5M",
      "rating": 4
    },
    {
      "id": 7,
      "artist": "The Yousicians",
      "title": "Greasy Fingers - boss level",
      "level": 3,
      "released": "2016-03-01",
      "views": "1.5M",
      "rating": 3.5
    },
    {
      "id": 8,
      "artist": "The Yousicians",
      "title": "Alabama Sunrise",
      "level": 6,
      "released": "2016-04-01",
      "views": "1.5M",
      "rating": 4.6
    },
    {
      "id": 9,
      "artist": "The Yousicians",
      "title": "Can't Buy Me Skills",
      "level": 9,
      "released": "2016-05-01",
      "views": "1.5M",
      "rating": 5
    },
    {
      "id": 10,
      "artist": "The Yousicians",
      "title": "Vivaldi Allegro Mashup",
      "level": 13,
      "released": "2016-06-01",
      "views": "1.5M",
      "rating": 2
    },
    {
      "id": 11,
      "artist": "The Yousicians",
      "title": "Babysitting",
      "level": 6,
      "released": "2016-07-01",
      "views": "1.5M",
      "rating": 2.7
    },
    {
      "id": 12,
      "artist": "The Yousicians",
      "title": "Lycanthropic Metamorphosis",
      "level": 13,
      "released": "2016-10-26",
      "views": "1.5M",
      "rating": 5
    },
    {
      "id": 13,
      "artist": "The Yousicians",
      "title": "A New Kennel",
      "level": 9,
      "released": "2010-02-03",
      "views": "1.5M",
      "rating": 2.3
    },
    {
      "id": 14,
      "artist": "Mr Fastfinger",
      "title": "Awaki-Waki",
      "level": 13,
      "released": "2012-05-11",
      "views": "1.5M",
      "rating": 3
    },
    {
      "id": 15,
      "artist": "The Yousicians",
      "title": "You've Got The Power",
      "level": 13,
      "released": "2014-12-20",
      "views": "1.5M",
      "rating": 4.4
    },
    {
      "id": 16,
      "artist": "The Yousicians",
      "title": "Wishing In The Night",
      "level": 9,
      "released": "2016-01-01",
      "views": "1.5M",
      "rating": 1.6
    },
    {
      "id": 17,
      "artist": "The Yousicians",
      "title": "Opa Opa Ta Bouzoukia",
      "level": 13,
      "released": "2013-04-27",
      "views": "1.5M",
      "rating": 4
    },
    {
      "id": 18,
      "artist": "The Yousicians",
      "title": "Greasy Fingers - boss level",
      "level": 3,
      "released": "2016-03-01",
      "views": "1.5M",
      "rating": 3.5
    },
    {
      "id": 19,
      "artist": "The Yousicians",
      "title": "Alabama Sunrise",
      "level": 6,
      "released": "2016-04-01",
      "views": "1.5M",
      "rating": 4.6
    },
    {
      "id": 20,
      "artist": "The Yousicians",
      "title": "Can't Buy Me Skills",
      "level": 9,
      "released": "2016-05-01",
      "views": "1.5M",
      "rating": 5
    },
    {
      "id": 21,
      "artist": "The Yousicians",
      "title": "Vivaldi Allegro Mashup",
      "level": 13,
      "released": "2016-06-01",
      "views": "1.5M",
      "rating": 2
    },
    {
      "id": 22,
      "artist": "The Yousicians",
      "title": "Babysitting",
      "level": 6,
      "released": "2016-07-01",
      "views": "1.5M",
      "rating": 2.7
    }
  ]
}